Getting started with dhis2r
…
Get access rights information about the account

dhis2_play_connection$access_rights
#>      manage externalize       write        read      update      delete 
#>        TRUE       FALSE        TRUE        TRUE        TRUE        TRUE

Get metadata

Get all resources on which you can get metadata on.

 dhis2_play_connection$get_metadata()
#> [1] "https://play.im.dhis2.org/stable-2-40-5/api/resources"
#> # A tibble: 89 × 4
#>    displayName                singular               plural                href 
#>    <chr>                      <chr>                  <chr>                 <chr>
#>  1 Relationships              relationship           relationships         http…
#>  2 Tracked Entity Attributes  trackedEntityAttribute trackedEntityAttribu… http…
#>  3 Data Element Operands      dataElementOperand     dataElementOperands   http…
#>  4 Program Indicators         programIndicator       programIndicators     http…
#>  5 Job Configurations         jobConfiguration       jobConfigurations     http…
#>  6 Icons                      icon                   icons                 http…
#>  7 Program Rules              programRule            programRules          http…
#>  8 Category Option Group Sets categoryOptionGroupSet categoryOptionGroupS… http…
#>  9 Event Hooks                eventHook              eventHooks            http…
#> 10 User Groups                userGroup              userGroups            http…
#> # ℹ 79 more rows
…
